{
  "id": 247,
  "date": "2022-12-19",
  "winning_numbers": "8,14,24,26,45,46",
  "additional_winning_number": 42,
  "draw_number": 3827,
  "jackpot_date_time": null,
  "jackpot_result": "1240425",
  "created_at": "2022-12-20 00:00:03",
  "updated_at": "2022-12-20 00:00:03",
  "winning_groups": [
    {
      "id": 1529,
      "group_tier": 1,
      "amount": "-",
      "num_of_winning_shares": null,
      "toto_result_id": 247,
      "winning_booths": null,
      "created_at": "2022-12-20 00:00:04",
      "updated_at": "2022-12-20 00:00:04"
    },
    {
      "id": 1530,
      "group_tier": 2,
      "amount": "87048",
      "num_of_winning_shares": 3,
      "toto_result_id": 247,
      "winning_booths": null,
      "created_at": "2022-12-20 00:00:04",
      "updated_at": "2022-12-20 00:00:04"
    },
    {
      "id": 1531,
      "group_tier": 3,
      "amount": "1910",
      "num_of_winning_shares": 94,
      "toto_result_id": 247,
      "winning_booths": null,
      "created_at": "2022-12-20 00:00:04",
      "updated_at": "2022-12-20 00:00:04"
    },
    {
      "id": 1532,
      "group_tier": 4,
      "amount": "412",
      "num_of_winning_shares": 238,
      "toto_result_id": 247,
      "winning_booths": null,
      "created_at": "2022-12-20 00:00:04",
      "updated_at": "2022-12-20 00:00:04"
    },
    {
      "id": 1533,
      "group_tier": 5,
      "amount": "50",
      "num_of_winning_shares": 4,
      "toto_result_id": 247,
      "winning_booths": null,
      "created_at": "2022-12-20 00:00:04",
      "updated_at": "2022-12-20 00:00:04"
    },
    {
      "id": 1534,
      "group_tier": 6,
      "amount": "25",
      "num_of_winning_shares": 6,
      "toto_result_id": 247,
      "winning_booths": null,
      "created_at": "2022-12-20 00:00:04",
      "updated_at": "2022-12-20 00:00:04"
    },
    {
      "id": 1535,
      "group_tier": 7,
      "amount": "10",
      "num_of_winning_shares": 92,
      "toto_result_id": 247,
      "winning_booths": null,
      "created_at": "2022-12-20 00:00:04",
      "updated_at": "2022-12-20 00:00:04"
    }
  ]
}
